{
  "images" : [
    {
      "filename" : "Group 6745.png",
      "idiom" : "universal",
      "scale" : "1x"
    },
    {
      "filename" : "Group 6745@2x.png",
      "idiom" : "universal",
      "scale" : "2x"
    },
    {
      "filename" : "Group 6745@3x.png",
      "idiom" : "universal",
      "scale" : "3x"
    }
  ],
  "info" : {
    "author" : "xcode",
    "version" : 1
  }
}
