{
  "images" : [
    {
      "filename" : "740-x-1016.png",
      "idiom" : "iphone",
      "scale" : "1x"
    },
    {
      "filename" : "1242-x-1698.png",
      "idiom" : "iphone",
      "scale" : "2x"
    },
    {
      "filename" : "1284x2137.png",
      "idiom" : "iphone",
      "scale" : "3x"
    },
    {
      "filename" : "1536-x-1575.png",
      "idiom" : "ipad",
      "scale" : "1x"
    },
    {
      "filename" : "2048-x-2101.png",
      "idiom" : "ipad",
      "scale" : "2x"
    }
  ],
  "info" : {
    "author" : "xcode",
    "version" : 1
  }
}
